<?xml version="1.0" encoding="UTF-8"?>
<svg width="80px" height="29px" viewBox="0 0 80 29" version="1.1" xmlns="http://www.w3.org/2000/svg" xmlns:xlink="http://www.w3.org/1999/xlink">
    <!-- Generator: sketchtool 51.3 (57544) - http://www.bohemiancoding.com/sketch -->
    <title>E9E3A8D9-DCA6-452A-BAA4-AE890D83D3E7</title>
    <desc>Created with sketchtool.</desc>
    <defs></defs>
    <g id="Page-1" stroke="none" stroke-width="1" fill="none" fill-rule="evenodd">
        <g id="Variants" transform="translate(-764.000000, -887.000000)">
            <g id="Prodeti" transform="translate(764.000000, 887.000000)">
                <path d="M63.3188055,24.7373882 C63.3188055,24.0272307 62.782648,23.5081992 62.0907583,23.5081992 C61.3986402,23.5081992 60.8446717,24.0272307 60.8446717,24.7373882 C60.8446717,25.447089 61.3986402,25.9503646 62.0907583,25.9503646 C62.782648,25.9503646 63.3188055,25.447089 63.3188055,24.7373882 L63.3188055,24.7373882 Z M79.2694906,24.8764512 L79.2694906,24.2859472 L73.9223016,24.2859472 C74.1645772,23.8381598 74.3888134,23.4755457 74.8557819,22.9551441 L77.8503173,19.6320181 C78.6801283,18.6962543 79.1489236,17.9872386 79.1489236,17.3298291 C79.1489236,16.7066717 78.6986244,16.4646244 78.1962622,16.4646244 L72.9189472,16.4646244 C72.3636087,16.4646244 71.9649157,16.8263252 71.9649157,17.3636244 L71.9649157,17.8995535 L77.2616402,17.8995535 C77.1401598,18.2297425 76.7426087,18.7318764 76.499648,18.991278 L73.350522,22.5208291 C72.346711,23.6474906 72.0341047,24.2181283 72.0341047,24.8408291 C72.0341047,25.3779 72.4681913,25.7259 73.0390575,25.7259 L78.1784512,25.7259 C78.8374591,25.7259 79.2694906,25.3779 79.2694906,24.8764512 L79.2694906,24.8764512 Z M70.9727504,18.9736953 L70.9727504,18.3156008 C70.9727504,16.9836559 69.8303331,16.2915378 68.4458685,16.2915378 C65.659585,16.2915378 63.8597583,18.5759157 63.8597583,21.2064669 C63.8597583,24.2012307 66.3507898,25.8969315 68.2903646,25.8969315 C70.2804039,25.8969315 70.9727504,24.8584118 70.9727504,24.269963 L70.9727504,23.6134669 L70.885522,23.6134669 C70.4190102,24.1674354 69.5720732,24.4263803 68.5662071,24.4263803 C67.1301362,24.4263803 65.4689157,23.3878606 65.4689157,20.964648 C65.4689157,19.1127583 66.6990181,17.762089 68.5335535,17.762089 C69.4323252,17.762089 70.5580732,18.2813488 70.885522,18.9736953 L70.9727504,18.9736953 Z M59.6750811,24.5047031 L59.6750811,23.9868134 L59.2279787,23.9868134 C58.1737031,23.9868134 57.7631362,23.6824276 57.7631362,22.7174354 L57.7631362,18.0004827 C57.7631362,16.7843094 57.1196559,16.2139 56.0475693,16.2139 L55.3673252,16.2139 L55.3673252,22.9503488 C55.3673252,24.8981441 56.3868921,25.9533331 58.2449472,25.9533331 C59.2645142,25.9533331 59.6750811,25.5416244 59.6750811,24.5047031 L59.6750811,24.5047031 Z M48.404585,16.0273409 L48.404585,22.3954669 C48.404585,24.646963 49.5849079,25.9711441 52.0151992,25.9711441 C53.4094827,25.9711441 54.1239787,25.3452465 54.1239787,24.3619866 L54.1239787,23.5043173 L54.035152,23.5043173 C53.6599787,23.736089 53.0685614,23.8424984 52.301774,23.8424984 C51.3360969,23.8424984 50.7823567,23.3611441 50.7823567,22.1100339 L50.7823567,18.3384354 L52.1156717,18.3384354 C53.0989315,18.3384354 53.5448921,17.6947268 53.5448921,17.193963 L53.5448921,16.2120732 L50.7823567,16.2120732 L50.7823567,14.0311362 L50.2286165,14.0311362 C48.8368449,14.0311362 48.404585,15.077648 48.404585,16.0273409 L48.404585,16.0273409 Z M43.0925614,17.9981992 C41.9298213,17.9981992 41.1262701,18.945837 41.0719236,20.0546874 L41.0538843,20.3748291 L42.1257425,20.3748291 C44.396648,20.3748291 44.9159079,20.1252465 44.9159079,19.4479709 C44.9159079,18.4816087 44.2000417,17.9981992 43.0925614,17.9981992 L43.0925614,17.9981992 Z M42.6454591,22.072585 L41.0719236,22.072585 C41.2507189,23.2896717 42.3591126,24.0580575 43.7707504,24.0580575 C44.7727346,24.0580575 45.9512307,23.8612228 46.7198449,23.1464984 L46.8102701,23.1464984 L46.8102701,23.8968449 C46.8102701,25.1301441 45.9699551,26.0786953 43.3252465,26.0786953 C40.928522,26.0786953 38.5879709,24.1831913 38.5879709,21.2345535 C38.5879709,18.0162386 40.5547189,15.9965142 43.305837,15.9965142 C45.3077504,15.9965142 47.1664906,17.4261913 47.1664906,19.7322622 C47.1664906,21.5033173 45.8260969,22.072585 42.6454591,22.072585 L42.6454591,22.072585 Z M32.5762937,18.0162386 C31.3610339,18.0162386 30.574837,19.1970181 30.574837,20.7518291 C30.574837,22.7526008 31.6119866,24.0580575 32.9875457,24.0580575 C34.3274827,24.0580575 34.918215,23.0579 34.918215,21.3057976 C34.918215,18.893089 33.863711,18.0162386 32.5762937,18.0162386 L32.5762937,18.0162386 Z M32.7016559,26.0786953 C30.1642701,26.0786953 28.2155614,23.8612228 28.2155614,21.2158291 C28.2155614,18.052089 29.7521047,15.9965142 32.5589394,15.9965142 C33.5241598,15.9965142 34.5779787,16.6756165 34.9533803,17.5159315 L34.9533803,12.994215 L35.6863724,12.994215 C36.8303882,12.994215 37.3304669,13.655963 37.3304669,14.6202701 L37.3304669,21.4128921 C37.3304669,24.2188134 36.0078843,26.0786953 32.7016559,26.0786953 L32.7016559,26.0786953 Z M22.5162622,18.1416008 C21.1400181,18.1416008 20.4433331,19.2858449 20.4433331,20.876963 C20.4433331,22.7893646 21.1400181,23.9326953 22.7306795,23.9326953 C24.1245063,23.9326953 24.803837,22.7893646 24.803837,21.2158291 C24.803837,19.2858449 24.0884276,18.1416008 22.5162622,18.1416008 L22.5162622,18.1416008 Z M22.7306795,15.9965142 C25.6256559,15.9965142 27.2875614,18.3203961 27.2875614,20.876963 C27.2875614,23.771711 25.6256559,26.0786953 22.5162622,26.0786953 C19.6206008,26.0786953 17.959152,23.771711 17.959152,21.2158291 C17.959152,18.3203961 19.6206008,15.9965142 22.7306795,15.9965142 L22.7306795,15.9965142 Z M17.5387661,18.5523961 L17.5387661,17.6947268 C17.5387661,16.9608213 17.0211047,16.1221047 15.5366244,16.1221047 C12.9987819,16.1221047 11.9803567,17.9632622 11.9803567,19.8937031 L11.9803567,24.3265929 C11.9803567,25.3272071 12.6599157,25.8633646 13.7324591,25.8633646 L14.3930654,25.8633646 L14.3930654,20.3211677 C14.3930654,18.8563252 14.984026,18.2665063 16.0563409,18.2665063 C16.6804118,18.2665063 17.0921205,18.4092228 17.4492543,18.5523961 L17.5387661,18.5523961 Z M6.07097874,18.1240181 C4.7495378,18.1240181 4.01540394,19.2682622 4.01540394,20.9306244 C4.01540394,22.8606087 4.96281339,23.9507346 6.3927189,23.9507346 C7.55431732,23.9507346 8.35901024,22.9147268 8.35901024,21.3772701 C8.35901024,19.1070496 7.60820709,18.1240181 6.07097874,18.1240181 L6.07097874,18.1240181 Z M6.48200236,26.0786953 C5.41037244,26.0786953 4.53420709,25.471522 4.05193937,24.646963 L4.05193937,28.9019709 L3.30113622,28.9019709 C2.44346693,28.9019709 1.62119134,28.2763016 1.62119134,27.2396087 L1.62119134,21.4128921 C1.62119134,18.2128449 3.05041181,15.9965142 6.44683701,15.9965142 C9.00157717,15.9965142 10.8256087,18.3203961 10.8256087,20.7518291 C10.8256087,23.8424984 9.28792362,26.0786953 6.48200236,26.0786953 L6.48200236,26.0786953 Z" id="pro-deti.cz" fill="#333333"></path>
                <path d="M33.1611118,0.485601575 C30.7621039,-0.910965354 27.0523874,0.807113386 24.8730488,4.32227874 C24.8582063,4.34671181 24.8451906,4.37297165 24.8301197,4.39808976 C24.8088835,4.37776693 24.7901591,4.35561732 24.7673244,4.33689291 C21.7300882,1.52960157 17.6977181,0.864428346 15.7576866,2.84990079 C13.8201669,4.83537323 14.7100331,8.72000315 17.7495528,11.5272945 C20.4639071,14.0363654 23.5333402,14.6437669 26.1727969,14.2848063 C28.7560803,13.9336094 31.609726,12.5226567 33.5570646,9.3803811 C35.7354898,5.86521575 35.5578362,1.8826252 33.1611118,0.485601575" id="červená" fill="#E33A69"></path>
                <path d="M10.8934276,5.90449134 C9.43064016,5.12240472 7.25472677,6.22714488 6.02713622,8.37108976 C6.01777402,8.38684567 6.01138031,8.40191654 6.00384488,8.4169874 C5.99082913,8.40602677 5.97918346,8.39369606 5.96479764,8.38319213 C4.09304173,6.77175118 1.67074252,6.45982992 0.555498425,7.68650709 C-0.55906063,8.91272756 0.0563330709,11.2121764 1.9296874,12.8231606 C3.60141181,14.262885 5.44759291,14.5595071 7.01519134,14.2889165 C8.54945118,14.024263 10.2243724,13.1222945 11.319522,11.2050976 C12.5436874,9.06023937 12.3523331,6.68726299 10.8934276,5.90449134" id="žlutá" fill="#FFD430"></path>
                <path d="M48.6290268,7.82024961 C47.530452,6.6572811 45.2001764,7.00550945 43.4227276,8.59480079 C43.4099402,8.60576142 43.3994362,8.61786378 43.3875622,8.62859606 C43.378885,8.61535197 43.3724913,8.60050945 43.3629008,8.58566693 C42.1394205,6.54036772 40.0176252,5.5169189 38.6226567,6.29877717 C37.2290583,7.08223386 37.0902236,9.37414724 38.3139323,11.4208165 C39.4065701,13.2478165 41.0052236,14.0831079 42.5228142,14.3128244 C44.0093496,14.5402575 45.8157984,14.2228559 47.403263,12.8018559 C49.1779717,11.2121079 49.7271449,8.98116299 48.6290268,7.82024961" id="modrá" fill="#469EEF"></path>
                <path d="M60.6586835,9.7462378 C59.8896126,8.88719843 58.202589,9.0949937 56.8921087,10.2074976 C56.8818331,10.2157181 56.8731559,10.2237102 56.8649354,10.2317024 C56.8601402,10.2207417 56.8560299,10.2104661 56.8473528,10.1997339 C56.004526,8.7022378 54.4942425,7.92448976 53.4739906,8.46270236 C52.4548803,9.00045827 52.3105654,10.6509465 53.1549906,12.1495843 C53.9085339,13.4881512 55.0463843,14.1188441 56.1351402,14.314537 C57.2038016,14.5045213 58.5117701,14.3097417 59.6831874,13.3150646 C60.992526,12.2023323 61.4302661,10.6043638 60.6586835,9.7462378" id="zelená" fill="#9CCF56"></path>
            </g>
        </g>
    </g>
</svg>